MBNMAtime for Model-Based (Network) Meta-Analysis
…
Inspecting the data

Before embarking on an analysis, the first step is to have a look at the raw data. Two features (network connectivity and time-course relationship) are particularly important for MBNMA/MBMA. For this we want to get our dataset into the right format for the package. We can do this using mb.network(). This requires specifying the desired treatment to use for the network reference treatment.

# Using the pain dataset
network.pain <- mb.network(osteopain, reference = "Pl_0")
print(network.pain)
#> description :
#> [1] "Network"
#> 
#> data.ab :
#> # A tibble: 417 x 10
#> # Groups:   studyID, time [116]
#>    studyID  time     y     se treatment   arm treatname fupcount  fups
#>    <fct>   <dbl> <dbl>  <dbl>     <dbl> <int> <fct>        <int> <int>
#>  1 Baerwa~     0  6.55 0.0861         1     1 Placebo_0        1     4
#>  2 Baerwa~     0  6.40 0.127         15     2 Naproxen~        1     4
#>  3 Baerwa~     0  6.62 0.0900        16     3 Naproxci~        1     4
#>  4 Baerwa~     2  5.40 0.0932         1     1 Placebo_0        2     4
#>  5 Baerwa~     2  4.03 0.133         15     2 Naproxen~        2     4
#>  6 Baerwa~     2  4.43 0.0926        16     3 Naproxci~        2     4
#>  7 Baerwa~     6  4.97 0.0997         1     1 Placebo_0        3     4
#>  8 Baerwa~     6  3.72 0.139         15     2 Naproxen~        3     4
#>  9 Baerwa~     6  4.08 0.0965        16     3 Naproxci~        3     4
#> 10 Baerwa~    13  4.75 0.109          1     1 Placebo_0        4     4
#> # ... with 407 more rows, and 1 more variable: narm <int>
…
