Convert arm-based MBNMA data to contrast data — mb.make.contrast • MBNMAtime
…
# Convert to long contrast data
mb.make.contrast(network, format="long")
#> Warning: Data type not specified and data frame contains y - data are assumed to be normal
#> Warning: studyID has been changed to allow separate ID for each contrast rather than study
#> # A tibble: 1,270 × 7
#> # Groups:   studyID, fupcount [635]
#>    studyID treatment  time     y    se   arm fupcount
#>      <dbl>     <dbl> <dbl> <dbl> <dbl> <dbl>    <int>
#>  1       1         1     0  7.06 0.222     1        1
#>  2       1         6     0  7.01 0.161     2        1
#>  3       2         1     0  7.06 0.222     1        1
#>  4       2         7     0  6.76 0.170     2        1
#>  5       3         1     0  7.06 0.222     1        1
#>  6       3         8     0  6.87 0.158     2        1
#>  7       4         1     0  7.06 0.222     1        1
#>  8       4         9     0  6.69 0.162     2        1
#>  9       5         1     0  7.06 0.222     1        1
#> 10       5        10     0  6.85 0.162     2        1
#> # … with 1,260 more rows
…
