MBNMAtime for time-course Model-Based (Network) Meta-Analysis • MBNMAtime
…
#> # A tibble: 58 × 3
#>    treatment parameter sucra
#>    <fct>     <chr>     <dbl>
#>  1 Pl_0      auc        3.34
#>  2 Pl_0      d.2       21.7 
#>  3 Ce_100    auc        8.13
#>  4 Ce_100    d.2       13.0 
#>  5 Ce_200    auc       15.6 
#>  6 Ce_200    d.2       14.6 
#>  7 Ce_400    auc       16.0 
#>  8 Ce_400    d.2       12.2 
#>  9 Du_90     auc       13.4 
#> 10 Du_90     d.2       14.9 
#> # … with 48 more rows
…
