Outputs: Relative effects, forest plots and rankings • MBNMAtime
…
#> # A tibble: 29 × 3
#>    treatment parameter  sucra
#>    <fct>     <chr>      <dbl>
#>  1 Pl_0      auc       0.0945
#>  2 Ce_100    auc       0.294 
#>  3 Ce_200    auc       0.562 
#>  4 Ce_400    auc       0.636 
#>  5 Du_90     auc       0.486 
#>  6 Et_10     auc       0.125 
#>  7 Et_30     auc       0.767 
#>  8 Et_5      auc       0.213 
#>  9 Et_60     auc       0.904 
#> 10 Et_90     auc       0.890 
#> # ℹ 19 more rows
…
